{:id=>"1", :nome=>"Mateus", :idade=>"24", :cargo=>"Professor", :data=>"2013-02-28 19:55:17 -0300"}
{:id=>"2", :nome=>"Mateus", :idade=>"24", :cargo=>"Professor", :data=>"2013-02-28 19:55:32 -0300"}
{:id=>"3", :nome=>"Mateus", :idade=>"24", :cargo=>"Professor", :data=>"2013-02-28 19:55:33 -0300"}
{:id=>"4", :nome=>"Leonard", :idade=>"24", :cargo=>"Professor", :data=>"2013-02-28 19:55:33 -0300"}
{:id=>"5", :nome=>"Mateus", :idade=>"24", :cargo=>"Professor", :data=>"2013-02-28 19:55:33 -0300"}
{:id=>"6", :nome=>"Mateus", :idade=>"24", :cargo=>"Professor", :data=>"2013-02-28 19:55:34 -0300"}
{:id=>"7", :nome=>"Mateus", :idade=>"24", :cargo=>"Professor", :data=>"2013-02-28 19:55:34 -0300"}
{:id=>"8", :nome=>"Mateus", :idade=>"24", :cargo=>"Professor", :data=>"2013-02-28 19:55:34 -0300"}
{:id=>"9", :nome=>"Mateus", :idade=>"24", :cargo=>"Professor", :data=>"2013-02-28 19:56:28 -0300"}
{:id=>"10", :nome=>"Mateus", :idade=>"24", :cargo=>"Professor", :data=>"2013-02-28 19:56:44 -0300"}
{:id=>"11", :nome=>"Mateus", :idade=>"24", :cargo=>"Professor", :data=>"2013-02-28 19:57:23 -0300"}
{:id=>"12", :nome=>"Mateus", :idade=>"24", :cargo=>"Professor", :data=>"2013-02-28 19:57:33 -0300"}
{:id=>"13", :nome=>"Mateus", :idade=>"24", :cargo=>"Professor", :data=>"2013-02-28 19:57:37 -0300"}
